{
    "fluentMethods": true,
    "relationships": [
        {
            "relationshipType": "many-to-one",
            "relationshipName": "supportedMarket",
            "otherEntityName": "market",
            "otherEntityField": "id"
        }
    ],
    "fields": [
        {
            "fieldName": "tradingOrdertype",
            "fieldType": "String",
            "fieldValidateRules": [
                "required"
            ]
        }
    ],
    "changelogDate": "20171012185518",
    "entityTableName": "trading_order_type",
    "dto": "no",
    "pagination": "no",
    "service": "serviceClass",
    "enableEntityAudit": true
}
